{
  "loopback-component-explorer": {
    "mountPath": "/explorer",
    "generateOperationScopedModels": true
  },
  "loopback-component-visualizer": {
    "mountPath": "/visualize"
  },
  "loopback-component-remote-ctx": {
    "enabled": true,
    "whiteList": [
      "patientCaseRegistry"
    ],
    "argName": "remoteCtx"
  }
}
