{
    "db": {
        "name": "db",
        "connector": "memory"
    },
    "mongoDs": {
        "host": "",
        "port": 0,
        "url": "mongodb://loopbackuser01:p15tNl9EHVIC1c1Q@adysasdemo-shard-00-00-s7kmn.mongodb.net:27017,adysasdemo-shard-00-01-s7kmn.mongodb.net:27017,adysasdemo-shard-00-02-s7kmn.mongodb.net:27017/adysasdemo?ssl=true&replicaSet=AdySasDemo-shard-0&authSource=admin&retryWrites=true&w=majority",
        "database": "adysasDemo",
        "password": "p15tNl9EHVIC1c1Q",
        "name": "mongoDs",
        "user": "loopbackuser01",
        "connector": "mongodb"
    }
}