{
  "name": "taskBoard",
  "plural": "taskBoards",
  "base": "PersistedModel",
  "idInjection": true,
  "options": {
    "validateUpsert": true
  },
  "mixins": {
    "TimeStamp": true
  },
  "properties": {
    "clientId": {
      "type": "string",
      "required": true
    },
    "userId": {
      "type": "string",
      "required": true
    },
    "taskboard": {
      "type": [
        "object"
      ]
    },
    "createdAt": {
      "type": "date"
    },
    "updatedAt": {
      "type": "date"
    }
  },
  "validations": [],
  "relations": {},
  "acls": [],
  "methods": {}
}
